<?xml version="1.0" encoding="UTF-8" standalone="no"?>
<svg
   xmlns:dc="http://purl.org/dc/elements/1.1/"
   xmlns:cc="http://creativecommons.org/ns#"
   xmlns:rdf="http://www.w3.org/1999/02/22-rdf-syntax-ns#"
   xmlns:svg="http://www.w3.org/2000/svg"
   xmlns="http://www.w3.org/2000/svg"
   xmlns:sodipodi="http://sodipodi.sourceforge.net/DTD/sodipodi-0.dtd"
   xmlns:inkscape="http://www.inkscape.org/namespaces/inkscape"
   width="297mm"
   height="132mm"
   viewBox="0 0 297 132"
   version="1.1"
   id="svg8"
   inkscape:version="1.0.2 (e86c870879, 2021-01-15, custom)"
   sodipodi:docname="gen_to_phen_v3.svg">
  <defs
     id="defs2">
    <marker
       style="overflow:visible"
       id="marker3887"
       refX="0"
       refY="0"
       orient="auto"
       inkscape:stockid="Arrow2Lend"
       inkscape:isstock="true">
      <path
         transform="matrix(-1.1,0,0,-1.1,-1.1,0)"
         d="M 8.7185878,4.0337352 -2.2072895,0.01601326 8.7185884,-4.0017078 c -1.7454984,2.3720609 -1.7354408,5.6174519 -6e-7,8.035443 z"
         style="fill:#000000;fill-opacity:1;fill-rule:evenodd;stroke:#000000;stroke-width:0.625;stroke-linejoin:round;stroke-opacity:1"
         id="path3885" />
    </marker>
    <marker
       style="overflow:visible"
       id="marker3793"
       refX="0"
       refY="0"
       orient="auto"
       inkscape:stockid="Arrow2Lstart"
       inkscape:isstock="true">
      <path
         transform="matrix(1.1,0,0,1.1,1.1,0)"
         d="M 8.7185878,4.0337352 -2.2072895,0.01601326 8.7185884,-4.0017078 c -1.7454984,2.3720609 -1.7354408,5.6174519 -6e-7,8.035443 z"
         style="fill:#000000;fill-opacity:1;fill-rule:evenodd;stroke:#000000;stroke-width:0.625;stroke-linejoin:round;stroke-opacity:1"
         id="path3791" />
    </marker>
    <marker
       style="overflow:visible"
       id="marker3575"
       refX="0"
       refY="0"
       orient="auto"
       inkscape:stockid="Arrow2Lend"
       inkscape:isstock="true">
      <path
         transform="matrix(-1.1,0,0,-1.1,-1.1,0)"
         d="M 8.7185878,4.0337352 -2.2072895,0.01601326 8.7185884,-4.0017078 c -1.7454984,2.3720609 -1.7354408,5.6174519 -6e-7,8.035443 z"
         style="fill:#000000;fill-opacity:1;fill-rule:evenodd;stroke:#000000;stroke-width:0.625;stroke-linejoin:round;stroke-opacity:1"
         id="path3573" />
    </marker>
    <marker
       style="overflow:visible"
       id="marker3487"
       refX="0"
       refY="0"
       orient="auto"
       inkscape:stockid="Arrow2Lstart"
       inkscape:isstock="true"
       inkscape:collect="always">
      <path
         transform="matrix(1.1,0,0,1.1,1.1,0)"
         d="M 8.7185878,4.0337352 -2.2072895,0.01601326 8.7185884,-4.0017078 c -1.7454984,2.3720609 -1.7354408,5.6174519 -6e-7,8.035443 z"
         style="fill:#000000;fill-opacity:1;fill-rule:evenodd;stroke:#000000;stroke-width:0.625;stroke-linejoin:round;stroke-opacity:1"
         id="path3485" />
    </marker>
    <marker
       style="overflow:visible"
       id="Arrow2Lend"
       refX="0"
       refY="0"
       orient="auto"
       inkscape:stockid="Arrow2Lend"
       inkscape:isstock="true">
      <path
         transform="matrix(-1.1,0,0,-1.1,-1.1,0)"
         d="M 8.7185878,4.0337352 -2.2072895,0.01601326 8.7185884,-4.0017078 c -1.7454984,2.3720609 -1.7354408,5.6174519 -6e-7,8.035443 z"
         style="fill:#000000;fill-opacity:1;fill-rule:evenodd;stroke:#000000;stroke-width:0.625;stroke-linejoin:round;stroke-opacity:1"
         id="path1444" />
    </marker>
    <rect
       x="198.32709"
       y="35.453075"
       width="132.9463"
       height="28.301985"
       id="rect2969" />
    <rect
       x="257.53821"
       y="83.995461"
       width="25.188372"
       height="35.969826"
       id="rect2963" />
    <marker
       style="overflow:visible"
       id="marker2881"
       refX="0"
       refY="0"
       orient="auto"
       inkscape:stockid="Arrow2Lstart"
       inkscape:isstock="true"
       inkscape:collect="always">
      <path
         transform="matrix(1.1,0,0,1.1,1.1,0)"
         d="M 8.7185878,4.0337352 -2.2072895,0.01601326 8.7185884,-4.0017078 c -1.7454984,2.3720609 -1.7354408,5.6174519 -6e-7,8.035443 z"
         style="fill:#000000;fill-opacity:1;fill-rule:evenodd;stroke:#000000;stroke-width:0.625;stroke-linejoin:round;stroke-opacity:1"
         id="path2879" />
    </marker>
    <marker
       style="overflow:visible"
       id="marker2057"
       refX="0"
       refY="0"
       orient="auto"
       inkscape:stockid="Arrow2Lstart"
       inkscape:isstock="true"
       inkscape:collect="always">
      <path
         transform="matrix(1.1,0,0,1.1,1.1,0)"
         d="M 8.7185878,4.0337352 -2.2072895,0.01601326 8.7185884,-4.0017078 c -1.7454984,2.3720609 -1.7354408,5.6174519 -6e-7,8.035443 z"
         style="fill:#000000;fill-opacity:1;fill-rule:evenodd;stroke:#000000;stroke-width:0.625;stroke-linejoin:round;stroke-opacity:1"
         id="path2055" />
    </marker>
    <marker
       style="overflow:visible"
       id="marker1993"
       refX="0"
       refY="0"
       orient="auto"
       inkscape:stockid="Arrow2Lstart"
       inkscape:isstock="true">
      <path
         transform="matrix(1.1,0,0,1.1,1.1,0)"
         d="M 8.7185878,4.0337352 -2.2072895,0.01601326 8.7185884,-4.0017078 c -1.7454984,2.3720609 -1.7354408,5.6174519 -6e-7,8.035443 z"
         style="fill:#000000;fill-opacity:1;fill-rule:evenodd;stroke:#000000;stroke-width:0.625;stroke-linejoin:round;stroke-opacity:1"
         id="path1991" />
    </marker>
    <marker
       style="overflow:visible"
       id="Arrow2Lstart"
       refX="0"
       refY="0"
       orient="auto"
       inkscape:stockid="Arrow2Lstart"
       inkscape:isstock="true"
       inkscape:collect="always">
      <path
         transform="matrix(1.1,0,0,1.1,1.1,0)"
         d="M 8.7185878,4.0337352 -2.2072895,0.01601326 8.7185884,-4.0017078 c -1.7454984,2.3720609 -1.7354408,5.6174519 -6e-7,8.035443 z"
         style="fill:#000000;fill-opacity:1;fill-rule:evenodd;stroke:#000000;stroke-width:0.625;stroke-linejoin:round;stroke-opacity:1"
         id="path1441" />
    </marker>
    <marker
       style="overflow:visible"
       id="Arrow1Lstart"
       refX="0"
       refY="0"
       orient="auto"
       inkscape:stockid="Arrow1Lstart"
       inkscape:isstock="true">
      <path
         transform="matrix(0.8,0,0,0.8,10,0)"
         style="fill:#000000;fill-opacity:1;fill-rule:evenodd;stroke:#000000;stroke-width:1pt;stroke-opacity:1"
         d="M 0,0 5,-5 -12.5,0 5,5 Z"
         id="path1423" />
    </marker>
    <marker
       style="overflow:visible"
       id="marker2057-6"
       refX="0"
       refY="0"
       orient="auto"
       inkscape:stockid="Arrow2Lstart"
       inkscape:isstock="true">
      <path
         transform="matrix(1.1,0,0,1.1,1.1,0)"
         d="M 8.7185878,4.0337352 -2.2072895,0.01601326 8.7185884,-4.0017078 c -1.7454984,2.3720609 -1.7354408,5.6174519 -6e-7,8.035443 z"
         style="fill:#000000;fill-opacity:1;fill-rule:evenodd;stroke:#000000;stroke-width:0.625;stroke-linejoin:round;stroke-opacity:1"
         id="path2055-8" />
    </marker>
    <marker
       style="overflow:visible"
       id="marker2057-4"
       refX="0"
       refY="0"
       orient="auto"
       inkscape:stockid="Arrow2Lstart"
       inkscape:isstock="true">
      <path
         transform="matrix(1.1,0,0,1.1,1.1,0)"
         d="M 8.7185878,4.0337352 -2.2072895,0.01601326 8.7185884,-4.0017078 c -1.7454984,2.3720609 -1.7354408,5.6174519 -6e-7,8.035443 z"
         style="fill:#000000;fill-opacity:1;fill-rule:evenodd;stroke:#000000;stroke-width:0.625;stroke-linejoin:round;stroke-opacity:1"
         id="path2055-3" />
    </marker>
    <marker
       style="overflow:visible"
       id="marker2057-6-1"
       refX="0"
       refY="0"
       orient="auto"
       inkscape:stockid="Arrow2Lstart"
       inkscape:isstock="true">
      <path
         transform="matrix(1.1,0,0,1.1,1.1,0)"
         d="M 8.7185878,4.0337352 -2.2072895,0.01601326 8.7185884,-4.0017078 c -1.7454984,2.3720609 -1.7354408,5.6174519 -6e-7,8.035443 z"
         style="fill:#000000;fill-opacity:1;fill-rule:evenodd;stroke:#000000;stroke-width:0.625;stroke-linejoin:round;stroke-opacity:1"
         id="path2055-8-4" />
    </marker>
    <marker
       style="overflow:visible"
       id="marker2057-0"
       refX="0"
       refY="0"
       orient="auto"
       inkscape:stockid="Arrow2Lstart"
       inkscape:isstock="true">
      <path
         transform="matrix(1.1,0,0,1.1,1.1,0)"
         d="M 8.7185878,4.0337352 -2.2072895,0.01601326 8.7185884,-4.0017078 c -1.7454984,2.3720609 -1.7354408,5.6174519 -6e-7,8.035443 z"
         style="fill:#000000;fill-opacity:1;fill-rule:evenodd;stroke:#000000;stroke-width:0.625;stroke-linejoin:round;stroke-opacity:1"
         id="path2055-6" />
    </marker>
    <marker
       style="overflow:visible"
       id="Arrow2Lstart-4-5-8"
       refX="0"
       refY="0"
       orient="auto"
       inkscape:stockid="Arrow2Lstart"
       inkscape:isstock="true">
      <path
         transform="matrix(1.1,0,0,1.1,1.1,0)"
         d="M 8.7185878,4.0337352 -2.2072895,0.01601326 8.7185884,-4.0017078 c -1.7454984,2.3720609 -1.7354408,5.6174519 -6e-7,8.035443 z"
         style="fill:#000000;fill-opacity:1;fill-rule:evenodd;stroke:#000000;stroke-width:0.625;stroke-linejoin:round;stroke-opacity:1"
         id="path2015-4-9-5" />
    </marker>
    <marker
       style="overflow:visible"
       id="Arrow2Lstart-1-1"
       refX="0"
       refY="0"
       orient="auto"
       inkscape:stockid="Arrow2Lstart"
       inkscape:isstock="true">
      <path
         transform="matrix(1.1,0,0,1.1,1.1,0)"
         d="M 8.7185878,4.0337352 -2.2072895,0.01601326 8.7185884,-4.0017078 c -1.7454984,2.3720609 -1.7354408,5.6174519 -6e-7,8.035443 z"
         style="fill:#000000;fill-opacity:1;fill-rule:evenodd;stroke:#000000;stroke-width:0.625;stroke-linejoin:round;stroke-opacity:1"
         id="path2015-7-7" />
    </marker>
    <marker
       style="overflow:visible"
       id="Arrow2Lstart-4-5"
       refX="0"
       refY="0"
       orient="auto"
       inkscape:stockid="Arrow2Lstart"
       inkscape:isstock="true">
      <path
         transform="matrix(1.1,0,0,1.1,1.1,0)"
         d="M 8.7185878,4.0337352 -2.2072895,0.01601326 8.7185884,-4.0017078 c -1.7454984,2.3720609 -1.7354408,5.6174519 -6e-7,8.035443 z"
         style="fill:#000000;fill-opacity:1;fill-rule:evenodd;stroke:#000000;stroke-width:0.625;stroke-linejoin:round;stroke-opacity:1"
         id="path2015-4-9" />
    </marker>
    <marker
       style="overflow:visible"
       id="Arrow2Lstart-1"
       refX="0"
       refY="0"
       orient="auto"
       inkscape:stockid="Arrow2Lstart"
       inkscape:isstock="true">
      <path
         transform="matrix(1.1,0,0,1.1,1.1,0)"
         d="M 8.7185878,4.0337352 -2.2072895,0.01601326 8.7185884,-4.0017078 c -1.7454984,2.3720609 -1.7354408,5.6174519 -6e-7,8.035443 z"
         style="fill:#000000;fill-opacity:1;fill-rule:evenodd;stroke:#000000;stroke-width:0.625;stroke-linejoin:round;stroke-opacity:1"
         id="path2015-7" />
    </marker>
    <marker
       style="overflow:visible"
       id="Arrow2Lstart-4"
       refX="0"
       refY="0"
       orient="auto"
       inkscape:stockid="Arrow2Lstart"
       inkscape:isstock="true">
      <path
         transform="matrix(1.1,0,0,1.1,1.1,0)"
         d="M 8.7185878,4.0337352 -2.2072895,0.01601326 8.7185884,-4.0017078 c -1.7454984,2.3720609 -1.7354408,5.6174519 -6e-7,8.035443 z"
         style="fill:#000000;fill-opacity:1;fill-rule:evenodd;stroke:#000000;stroke-width:0.625;stroke-linejoin:round;stroke-opacity:1"
         id="path2015-4" />
    </marker>
    <marker
       style="overflow:visible"
       id="Arrow2Lstart-3"
       refX="0"
       refY="0"
       orient="auto"
       inkscape:stockid="Arrow2Lstart"
       inkscape:isstock="true">
      <path
         transform="matrix(1.1,0,0,1.1,1.1,0)"
         d="M 8.7185878,4.0337352 -2.2072895,0.01601326 8.7185884,-4.0017078 c -1.7454984,2.3720609 -1.7354408,5.6174519 -6e-7,8.035443 z"
         style="fill:#000000;fill-opacity:1;fill-rule:evenodd;stroke:#000000;stroke-width:0.625;stroke-linejoin:round;stroke-opacity:1"
         id="path2015" />
    </marker>
  </defs>
  <sodipodi:namedview
     id="base"
     pagecolor="#ffffff"
     bordercolor="#666666"
     borderopacity="1.0"
     inkscape:pageopacity="0.0"
     inkscape:pageshadow="2"
     inkscape:zoom="0.82030906"
     inkscape:cx="723.87059"
     inkscape:cy="353.65866"
     inkscape:document-units="mm"
     inkscape:current-layer="layer1"
     inkscape:document-rotation="0"
     showgrid="false"
     showguides="false"
     inkscape:window-width="1920"
     inkscape:window-height="979"
     inkscape:window-x="0"
     inkscape:window-y="32"
     inkscape:window-maximized="1">
    <inkscape:grid
       type="xygrid"
       id="grid1419" />
  </sodipodi:namedview>
  <metadata
     id="metadata5">
    <rdf:RDF>
      <cc:Work
         rdf:about="">
        <dc:format>image/svg+xml</dc:format>
        <dc:type
           rdf:resource="http://purl.org/dc/dcmitype/StillImage" />
        <dc:title></dc:title>
      </cc:Work>
    </rdf:RDF>
  </metadata>
  <g
     inkscape:label="Layer 1"
     inkscape:groupmode="layer"
     id="layer1">
    <text
       xml:space="preserve"
       style="font-style:normal;font-weight:normal;font-size:10.5833px;line-height:1.25;font-family:sans-serif;fill:#000000;fill-opacity:1;stroke:none;stroke-width:0.264583"
       x="11.689012"
       y="17.024042"
       id="text1313"><tspan
         sodipodi:role="line"
         id="tspan1311"
         x="11.689012"
         y="17.024042"
         style="stroke-width:0.264583">Substrate</tspan></text>
    <path
       style="fill:none;stroke:#000000;stroke-width:0.265;stroke-linecap:butt;stroke-linejoin:miter;stroke-miterlimit:4;stroke-dasharray:none;stroke-opacity:1;marker-start:url(#Arrow2Lstart)"
       d="M 55.328418,50.415095 V 42.477596 Z"
       id="path1421" />
    <circle
       style="fill:#acacac;fill-opacity:1;stroke:none;stroke-width:0.121513;stroke-linejoin:bevel;stroke-miterlimit:4;stroke-dasharray:none;stroke-dashoffset:0"
       id="path833-6-5"
       cx="11.39925"
       cy="41.329681"
       r="1.5" />
    <circle
       style="fill:#acacac;fill-opacity:1;stroke:none;stroke-width:0.121513;stroke-linejoin:bevel;stroke-miterlimit:4;stroke-dasharray:none;stroke-dashoffset:0"
       id="path833-3-7-6"
       cx="11.39925"
       cy="52.329678"
       r="1.5" />
    <circle
       style="fill:#acacac;fill-opacity:1;stroke:none;stroke-width:0.121513;stroke-linejoin:bevel;stroke-miterlimit:4;stroke-dasharray:none;stroke-dashoffset:0"
       id="path833-6-5-9"
       cx="11.39925"
       cy="63.329678"
       r="1.5" />
    <circle
       style="fill:#acacac;fill-opacity:1;stroke:none;stroke-width:0.121513;stroke-linejoin:bevel;stroke-miterlimit:4;stroke-dasharray:none;stroke-dashoffset:0"
       id="path833-3-7-6-3"
       cx="11.39925"
       cy="74.329681"
       r="1.5" />
    <circle
       style="fill:#acacac;fill-opacity:1;stroke:none;stroke-width:0.121513;stroke-linejoin:bevel;stroke-miterlimit:4;stroke-dasharray:none;stroke-dashoffset:0"
       id="path833-60"
       cx="22.399252"
       cy="41.329681"
       r="1.5" />
    <circle
       style="fill:#acacac;fill-opacity:1;stroke:none;stroke-width:0.121513;stroke-linejoin:bevel;stroke-miterlimit:4;stroke-dasharray:none;stroke-dashoffset:0"
       id="path833-3-6"
       cx="22.399252"
       cy="52.329678"
       r="1.5" />
    <circle
       style="fill:#acacac;fill-opacity:1;stroke:none;stroke-width:0.121513;stroke-linejoin:bevel;stroke-miterlimit:4;stroke-dasharray:none;stroke-dashoffset:0"
       id="path833-6-2"
       cx="33.39925"
       cy="41.329681"
       r="1.5" />
    <circle
       style="fill:#acacac;fill-opacity:1;stroke:none;stroke-width:0.121513;stroke-linejoin:bevel;stroke-miterlimit:4;stroke-dasharray:none;stroke-dashoffset:0"
       id="path833-3-7-61"
       cx="33.39925"
       cy="52.329678"
       r="1.5" />
    <circle
       style="fill:#acacac;fill-opacity:1;stroke:none;stroke-width:0.121513;stroke-linejoin:bevel;stroke-miterlimit:4;stroke-dasharray:none;stroke-dashoffset:0"
       id="path833-5-8"
       cx="44.39925"
       cy="41.329681"
       r="1.5" />
    <circle
       style="fill:#acacac;fill-opacity:1;stroke:none;stroke-width:0.121513;stroke-linejoin:bevel;stroke-miterlimit:4;stroke-dasharray:none;stroke-dashoffset:0"
       id="path833-3-3-7"
       cx="44.39925"
       cy="52.329678"
       r="1.5" />
    <circle
       style="fill:#acacac;fill-opacity:1;stroke:#000000;stroke-width:0.122;stroke-linejoin:bevel;stroke-miterlimit:4;stroke-dasharray:none;stroke-dashoffset:0;stroke-opacity:1"
       id="path833-6-5-92"
       cx="55.39925"
       cy="41.329681"
       r="1.5" />
    <circle
       style="fill:#acacac;fill-opacity:1;stroke:#000000;stroke-width:0.121513;stroke-linejoin:bevel;stroke-miterlimit:4;stroke-dasharray:none;stroke-dashoffset:0;stroke-opacity:1"
       id="path833-3-7-6-0"
       cx="55.39925"
       cy="52.329678"
       r="1.5" />
    <circle
       style="fill:#acacac;fill-opacity:1;stroke:none;stroke-width:0.121513;stroke-linejoin:bevel;stroke-miterlimit:4;stroke-dasharray:none;stroke-dashoffset:0"
       id="path833-2-2"
       cx="22.399252"
       cy="63.329678"
       r="1.5" />
    <circle
       style="fill:#acacac;fill-opacity:1;stroke:none;stroke-width:0.121513;stroke-linejoin:bevel;stroke-miterlimit:4;stroke-dasharray:none;stroke-dashoffset:0"
       id="path833-3-9-3"
       cx="22.399252"
       cy="74.329681"
       r="1.5" />
    <circle
       style="fill:#acacac;fill-opacity:1;stroke:none;stroke-width:0.121513;stroke-linejoin:bevel;stroke-miterlimit:4;stroke-dasharray:none;stroke-dashoffset:0"
       id="path833-6-1-7"
       cx="33.39925"
       cy="63.329678"
       r="1.5" />
    <circle
       style="fill:#acacac;fill-opacity:1;stroke:none;stroke-width:0.121513;stroke-linejoin:bevel;stroke-miterlimit:4;stroke-dasharray:none;stroke-dashoffset:0"
       id="path833-3-7-2-5"
       cx="33.39925"
       cy="74.329681"
       r="1.5" />
    <circle
       style="fill:#acacac;fill-opacity:1;stroke:none;stroke-width:0.121513;stroke-linejoin:bevel;stroke-miterlimit:4;stroke-dasharray:none;stroke-dashoffset:0"
       id="path833-5-7-9"
       cx="44.39925"
       cy="63.329678"
       r="1.5" />
    <circle
       style="fill:#acacac;fill-opacity:1;stroke:none;stroke-width:0.121513;stroke-linejoin:bevel;stroke-miterlimit:4;stroke-dasharray:none;stroke-dashoffset:0"
       id="path833-3-3-0-2"
       cx="44.39925"
       cy="74.329681"
       r="1.5" />
    <circle
       style="fill:#acacac;fill-opacity:1;stroke:none;stroke-width:0.121513;stroke-linejoin:bevel;stroke-miterlimit:4;stroke-dasharray:none;stroke-dashoffset:0"
       id="path833-6-5-9-2"
       cx="55.39925"
       cy="63.329678"
       r="1.5" />
    <circle
       style="fill:#acacac;fill-opacity:1;stroke:none;stroke-width:0.121513;stroke-linejoin:bevel;stroke-miterlimit:4;stroke-dasharray:none;stroke-dashoffset:0"
       id="path833-3-7-6-3-8"
       cx="55.39925"
       cy="74.329681"
       r="1.5" />
    <circle
       style="fill:#acacac;fill-opacity:1;stroke:none;stroke-width:0.121513;stroke-linejoin:bevel;stroke-miterlimit:4;stroke-dasharray:none;stroke-dashoffset:0"
       id="path833-60-1"
       cx="27.69092"
       cy="85.329681"
       r="1.5" />
    <circle
       style="fill:#acacac;fill-opacity:1;stroke:none;stroke-width:0.121513;stroke-linejoin:bevel;stroke-miterlimit:4;stroke-dasharray:none;stroke-dashoffset:0"
       id="path833-6-2-6"
       cx="38.690922"
       cy="85.329681"
       r="1.5" />
    <text
       xml:space="preserve"
       style="font-style:normal;font-weight:normal;font-size:7.05556px;line-height:1.25;font-family:sans-serif;fill:#000000;fill-opacity:1;stroke:none;stroke-width:0.264583"
       x="54.21703"
       y="37.306721"
       id="text1317"><tspan
         sodipodi:role="line"
         id="tspan1315"
         x="54.21703"
         y="37.306721"
         style="font-size:7.05556px;stroke-width:0.264583">(x<tspan
   style="font-size:65%;baseline-shift:sub"
   id="tspan1319">1</tspan>,y<tspan
   style="font-size:65%;baseline-shift:sub"
   id="tspan1321">1</tspan>)</tspan></text>
    <text
       xml:space="preserve"
       style="font-style:normal;font-weight:normal;font-size:7.05556px;line-height:1.25;font-family:sans-serif;fill:#000000;fill-opacity:1;stroke:none;stroke-width:0.264583"
       x="54.21703"
       y="59.463276"
       id="text1317-3"><tspan
         sodipodi:role="line"
         id="tspan1315-7"
         x="54.21703"
         y="59.463276"
         style="font-size:7.05556px;stroke-width:0.264583">(x<tspan
   style="font-size:65%;baseline-shift:sub"
   id="tspan1319-4">2</tspan>,y<tspan
   style="font-size:65%;baseline-shift:sub"
   id="tspan1321-5">2</tspan>)</tspan></text>
    <g
       id="g3141"
       transform="translate(-43.580496,-14.116647)">
      <g
         id="g2753"
         transform="translate(0,24.341676)">
        <ellipse
           style="fill:none;fill-opacity:1;stroke:#000000;stroke-width:0.480396;stroke-linejoin:bevel;stroke-miterlimit:4;stroke-dasharray:none;stroke-dashoffset:0;stroke-opacity:1"
           id="path1836"
           cx="145"
           cy="65.000061"
           rx="4.7598019"
           ry="4.7598658" />
        <ellipse
           style="fill:none;fill-opacity:1;stroke:#000000;stroke-width:0.480396;stroke-linejoin:bevel;stroke-miterlimit:4;stroke-dasharray:none;stroke-dashoffset:0;stroke-opacity:1"
           id="path1836-2"
           cx="160"
           cy="65.000061"
           rx="4.7598019"
           ry="4.7598658" />
        <ellipse
           style="fill:none;fill-opacity:1;stroke:#000000;stroke-width:0.480396;stroke-linejoin:bevel;stroke-miterlimit:4;stroke-dasharray:none;stroke-dashoffset:0;stroke-opacity:1"
           id="path1836-5"
           cx="175"
           cy="65.000061"
           rx="4.7598019"
           ry="4.7598658" />
        <ellipse
           style="fill:none;fill-opacity:1;stroke:#000000;stroke-width:0.480396;stroke-linejoin:bevel;stroke-miterlimit:4;stroke-dasharray:none;stroke-dashoffset:0;stroke-opacity:1"
           id="path1836-2-4"
           cx="190"
           cy="65.000061"
           rx="4.7598019"
           ry="4.7598658" />
        <ellipse
           style="fill:none;fill-opacity:1;stroke:#000000;stroke-width:0.480396;stroke-linejoin:bevel;stroke-miterlimit:4;stroke-dasharray:none;stroke-dashoffset:0;stroke-opacity:1"
           id="path1836-7"
           cx="152.5"
           cy="80.000061"
           rx="4.7598019"
           ry="4.7598658" />
        <ellipse
           style="fill:none;fill-opacity:1;stroke:#000000;stroke-width:0.480396;stroke-linejoin:bevel;stroke-miterlimit:4;stroke-dasharray:none;stroke-dashoffset:0;stroke-opacity:1"
           id="path1836-2-44"
           cx="167.5"
           cy="80.000061"
           rx="4.7598019"
           ry="4.7598658" />
        <ellipse
           style="fill:none;fill-opacity:1;stroke:#000000;stroke-width:0.480396;stroke-linejoin:bevel;stroke-miterlimit:4;stroke-dasharray:none;stroke-dashoffset:0;stroke-opacity:1"
           id="path1836-5-3"
           cx="182.5"
           cy="80.000061"
           rx="4.7598019"
           ry="4.7598658" />
        <ellipse
           style="fill:none;fill-opacity:1;stroke:#000000;stroke-width:0.480396;stroke-linejoin:bevel;stroke-miterlimit:4;stroke-dasharray:none;stroke-dashoffset:0;stroke-opacity:1"
           id="path1836-2-44-0"
           cx="167.5"
           cy="95.000061"
           rx="4.7598019"
           ry="4.7598658" />
        <path
           style="fill:none;stroke:#000000;stroke-width:0.264583px;stroke-linecap:butt;stroke-linejoin:miter;stroke-opacity:1"
           d="M 144.99166,69.585416 152.4,75.141666 Z"
           id="path1932" />
        <path
           style="fill:none;stroke:#000000;stroke-width:0.264583px;stroke-linecap:butt;stroke-linejoin:miter;stroke-opacity:1"
           d="m 175.15435,69.585416 7.40834,5.55625 z"
           id="path1932-7" />
        <path
           style="fill:none;stroke:#000000;stroke-width:0.264583px;stroke-linecap:butt;stroke-linejoin:miter;stroke-opacity:1"
           d="m 167.48125,84.93125 v 5.291666 z"
           id="path1965" />
        <path
           style="fill:none;stroke:#000000;stroke-width:0.264583px;stroke-linecap:butt;stroke-linejoin:miter;stroke-opacity:1"
           d="m 182.5625,84.931249 -15.08125,5.291667 z"
           id="path1967" />
        <path
           style="fill:none;stroke:#000000;stroke-width:0.264583px;stroke-linecap:butt;stroke-linejoin:miter;stroke-opacity:1"
           d="M 167.48125,90.222916 152.4,84.666666 Z"
           id="path1969" />
        <path
           style="fill:none;stroke:#000000;stroke-width:0.264583px;stroke-linecap:butt;stroke-linejoin:miter;stroke-opacity:1"
           d="m 189.97083,69.849999 -22.48958,5.291667 z"
           id="path1971" />
        <path
           style="fill:none;stroke:#000000;stroke-width:0.264583px;stroke-linecap:butt;stroke-linejoin:miter;stroke-opacity:1"
           d="m 182.5625,75.141666 7.40833,-5.291667 z"
           id="path1973" />
        <path
           style="fill:none;stroke:#000000;stroke-width:0.264583px;stroke-linecap:butt;stroke-linejoin:miter;stroke-opacity:1"
           d="M 175.15416,69.849999 152.4,75.141666 Z"
           id="path1975" />
        <path
           style="fill:none;stroke:#000000;stroke-width:0.264583px;stroke-linecap:butt;stroke-linejoin:miter;stroke-opacity:1"
           d="M 160.07291,69.849999 152.4,75.141666 Z"
           id="path1977" />
        <path
           style="fill:none;stroke:#000000;stroke-width:0.264583px;stroke-linecap:butt;stroke-linejoin:miter;stroke-opacity:1"
           d="m 175.15416,69.849999 -7.40833,5.291667 z"
           id="path1981" />
        <path
           style="fill:none;stroke:#000000;stroke-width:0.448867;stroke-linecap:butt;stroke-linejoin:miter;stroke-miterlimit:4;stroke-dasharray:none;stroke-opacity:1;marker-start:url(#marker2057)"
           d="M 144.99166,59.531249 V 50.535416 Z"
           id="path1983" />
        <path
           style="fill:none;stroke:#000000;stroke-width:0.448867;stroke-linecap:butt;stroke-linejoin:miter;stroke-miterlimit:4;stroke-dasharray:none;stroke-opacity:1;marker-start:url(#marker2057-6)"
           d="M 160.07301,59.531249 V 50.535416 Z"
           id="path1983-8" />
        <path
           style="fill:none;stroke:#000000;stroke-width:0.448867;stroke-linecap:butt;stroke-linejoin:miter;stroke-miterlimit:4;stroke-dasharray:none;stroke-opacity:1;marker-start:url(#marker2057-4)"
           d="M 174.88967,59.26666 V 50.270827 Z"
           id="path1983-9" />
        <path
           style="fill:none;stroke:#000000;stroke-width:0.448867;stroke-linecap:butt;stroke-linejoin:miter;stroke-miterlimit:4;stroke-dasharray:none;stroke-opacity:1;marker-start:url(#marker2057-6-1)"
           d="M 189.97102,59.26666 V 50.270827 Z"
           id="path1983-8-2" />
        <path
           style="fill:none;stroke:#000000;stroke-width:0.448867;stroke-linecap:butt;stroke-linejoin:miter;stroke-miterlimit:4;stroke-dasharray:none;stroke-opacity:1;marker-start:url(#marker2057-0)"
           d="m 167.2168,109.00841 v -8.99588 z"
           id="path1983-89" />
        <text
           xml:space="preserve"
           style="font-style:normal;font-weight:normal;font-size:7.05556px;line-height:1.25;font-family:sans-serif;fill:#000000;fill-opacity:1;stroke:none;stroke-width:0.264583"
           x="142.373"
           y="49.28178"
           id="text1317-2"><tspan
             sodipodi:role="line"
             id="tspan1315-6"
             x="142.373"
             y="49.28178"
             style="font-size:7.05556px;stroke-width:0.264583">x<tspan
   style="font-size:65%;baseline-shift:sub"
   id="tspan1319-6">1</tspan></tspan></text>
        <text
           xml:space="preserve"
           style="font-style:normal;font-weight:normal;font-size:7.05556px;line-height:1.25;font-family:sans-serif;fill:#000000;fill-opacity:1;stroke:none;stroke-width:0.264583"
           x="157.49295"
           y="49.28178"
           id="text1317-2-9"><tspan
             sodipodi:role="line"
             id="tspan1315-6-5"
             x="157.49295"
             y="49.28178"
             style="font-size:7.05556px;stroke-width:0.264583">y<tspan
   style="font-size:65%;baseline-shift:sub"
   id="tspan1319-6-0">1</tspan></tspan></text>
        <text
           xml:space="preserve"
           style="font-style:normal;font-weight:normal;font-size:7.05556px;line-height:1.25;font-family:sans-serif;fill:#000000;fill-opacity:1;stroke:none;stroke-width:0.264583"
           x="187.49295"
           y="49.28178"
           id="text1317-2-4"><tspan
             sodipodi:role="line"
             id="tspan1315-6-8"
             x="187.49295"
             y="49.28178"
             style="font-size:7.05556px;stroke-width:0.264583">y<tspan
   style="font-size:65%;baseline-shift:sub"
   id="tspan1319-6-7">2</tspan></tspan></text>
        <text
           xml:space="preserve"
           style="font-style:normal;font-weight:normal;font-size:7.05556px;line-height:1.25;font-family:sans-serif;fill:#000000;fill-opacity:1;stroke:none;stroke-width:0.264583"
           x="172.373"
           y="49.28178"
           id="text1317-2-1"><tspan
             sodipodi:role="line"
             id="tspan1315-6-7"
             x="172.373"
             y="49.28178"
             style="font-size:7.05556px;stroke-width:0.264583">x<tspan
   style="font-size:65%;baseline-shift:sub"
   id="tspan1319-6-2">2</tspan></tspan></text>
        <text
           xml:space="preserve"
           style="font-style:normal;font-weight:normal;font-size:7.05556px;line-height:1.25;font-family:sans-serif;fill:#000000;fill-opacity:1;stroke:none;stroke-width:0.264583"
           x="169.38185"
           y="104.78725"
           id="text1317-2-7"><tspan
             sodipodi:role="line"
             id="tspan1315-6-2"
             x="169.38185"
             y="104.78725"
             style="font-size:7.05556px;stroke-width:0.264583">w<tspan
   style="font-size:65%;baseline-shift:sub"
   id="tspan1319-6-26">12</tspan></tspan></text>
      </g>
    </g>
    <text
       xml:space="preserve"
       style="font-style:normal;font-weight:normal;font-size:10.5833px;line-height:1.25;font-family:sans-serif;text-align:center;text-anchor:middle;fill:#000000;fill-opacity:1;stroke:none;stroke-width:0.264583"
       x="121.93936"
       y="32.731514"
       id="text1313-1"><tspan
         sodipodi:role="line"
         x="121.93936"
         y="32.731514"
         style="text-align:center;text-anchor:middle;stroke-width:0.264583"
         id="tspan2839">CPPN</tspan></text>
    <path
       style="fill:none;stroke:#000000;stroke-width:0.359868;stroke-linecap:butt;stroke-linejoin:miter;stroke-miterlimit:4;stroke-dasharray:none;stroke-opacity:1;marker-start:url(#marker2881)"
       d="m 184.57114,75.675981 -18.13177,0.209171 z"
       id="path2871" />
    <path
       style="fill:none;stroke:#000000;stroke-width:0.264583;stroke-linecap:butt;stroke-linejoin:miter;stroke-miterlimit:4;stroke-dasharray:0.264583, 0.529166;stroke-dashoffset:0;stroke-opacity:1;marker-start:url(#marker3487);marker-end:url(#marker3575)"
       d="M 98.688954,54.820549 C 92.451504,43.173609 70.060614,40.56536 57.460273,41.604725 74.442894,36.090694 101.95333,42.605743 113.879,54.99313"
       id="path3477" />
    <path
       style="fill:none;stroke:#000000;stroke-width:0.264583;stroke-linecap:butt;stroke-linejoin:miter;stroke-miterlimit:4;stroke-dasharray:0.264583, 0.529166;stroke-dashoffset:0;stroke-opacity:1;marker-start:url(#marker3793);marker-end:url(#marker3887)"
       d="M 129.59282,54.590713 C 111.75453,42.006485 80.111994,49.219682 57.355027,52.760622 81.452714,43.765358 124.69435,36.452378 144.40595,54.318637"
       id="path3783" />
    <text
       xml:space="preserve"
       style="font-style:normal;font-weight:normal;font-size:7.05557px;line-height:1.25;font-family:sans-serif;fill:#000000;fill-opacity:1;stroke:none;stroke-width:0.264583"
       x="62.443977"
       y="99.833252"
       id="text4023"><tspan
         sodipodi:role="line"
         id="tspan4021"
         x="62.443977"
         y="99.833252"
         style="font-size:7.05557px;text-align:center;text-anchor:middle;stroke-width:0.264583">For each pair</tspan><tspan
         sodipodi:role="line"
         x="62.443977"
         y="108.65272"
         style="font-size:7.05557px;text-align:center;text-anchor:middle;stroke-width:0.264583"
         id="tspan3501">of nodes (x<tspan
   style="font-size:4.58612px;baseline-shift:sub;stroke-width:0.264583"
   id="tspan4495">i</tspan>, y<tspan
   style="font-size:4.58612px;baseline-shift:sub;stroke-width:0.264583"
   id="tspan4497">i</tspan>), (x<tspan
   style="font-size:4.58612px;baseline-shift:sub;stroke-width:0.264583"
   id="tspan4499">j</tspan>, y<tspan
   style="font-size:4.58612px;baseline-shift:sub;stroke-width:0.264583"
   id="tspan4501">j</tspan>)</tspan><tspan
         sodipodi:role="line"
         x="62.443977"
         y="117.47218"
         style="font-size:7.05557px;text-align:center;text-anchor:middle;stroke-width:0.264583"
         id="tspan4025">query the connection weight w<tspan
   style="font-size:4.58612px;baseline-shift:sub;stroke-width:0.264583"
   id="tspan4503">ij</tspan></tspan></text>
    <rect
       style="fill:none;fill-opacity:1;stroke:#000000;stroke-width:0.600235;stroke-linejoin:bevel;stroke-miterlimit:4;stroke-dasharray:none;stroke-dashoffset:0;stroke-opacity:1"
       id="rect4159"
       width="160.74478"
       height="130.10222"
       x="0.80011749"
       y="0.80011749"
       ry="6.3557053" />
    <text
       xml:space="preserve"
       style="font-style:normal;font-weight:normal;font-size:2.8499px;line-height:1.25;font-family:sans-serif;fill:#000000;fill-opacity:1;stroke:none;stroke-width:0.712477"
       x="86.832802"
       y="-303.8103"
       id="text3409"
       transform="rotate(90)"><tspan
         sodipodi:role="line"
         id="tspan3407"
         x="86.832802"
         y="-303.8103"
         style="font-size:2.8499px;stroke-width:0.712477" /></text>
    <g
       id="g5101"
       transform="translate(-0.01127747,-13.208476)">
      <text
         xml:space="preserve"
         id="text2967"
         style="font-style:normal;font-weight:normal;font-size:10.5833px;line-height:1.25;font-family:sans-serif;text-align:center;white-space:pre;shape-inside:url(#rect2969);fill:#000000;fill-opacity:1;stroke:none;"
         x="22.886332"
         y="0"
         transform="translate(-19.761719,-15.987246)"><tspan
           x="240.62232"
           y="45.082607"><tspan
             style="text-align:center;text-anchor:middle">Initialised
</tspan></tspan><tspan
           x="226.94874"
           y="58.311733"><tspan
             style="text-align:center;text-anchor:middle">neural network</tspan></tspan></text>
      <ellipse
         style="fill:none;fill-opacity:1;fill-rule:evenodd;stroke:#000000;stroke-width:0.494236;stroke-opacity:1"
         id="path14-35"
         cx="77.633888"
         cy="-240.62338"
         rx="3.7213287"
         ry="3.6922555"
         transform="rotate(90)" />
      <ellipse
         style="fill:none;fill-opacity:1;fill-rule:evenodd;stroke:#000000;stroke-width:0.494236;stroke-opacity:1"
         id="path14-3-5-9-1"
         cx="77.633888"
         cy="-196.3163"
         rx="3.7213287"
         ry="3.6922555"
         transform="rotate(90)" />
      <ellipse
         style="fill:none;fill-opacity:1;fill-rule:evenodd;stroke:#000000;stroke-width:0.494236;stroke-opacity:1"
         id="path14-78"
         cx="77.633659"
         cy="-229.20883"
         rx="3.7213287"
         ry="3.6922555"
         transform="rotate(90)" />
      <ellipse
         style="fill:none;fill-opacity:1;fill-rule:evenodd;stroke:#000000;stroke-width:0.494236;stroke-opacity:1"
         id="path14-3-4"
         cx="77.633659"
         cy="-218.13205"
         rx="3.7213287"
         ry="3.6922555"
         transform="rotate(90)" />
      <ellipse
         style="fill:none;fill-opacity:1;fill-rule:evenodd;stroke:#000000;stroke-width:0.494236;stroke-opacity:1"
         id="path14-7-5"
         cx="77.633659"
         cy="-207.0553"
         rx="3.7213287"
         ry="3.6922555"
         transform="rotate(90)" />
      <ellipse
         style="fill:none;fill-opacity:1;fill-rule:evenodd;stroke:#000000;stroke-width:0.522371;stroke-opacity:1"
         id="path14"
         cx="60.916256"
         cy="-234.85722"
         rx="3.929671"
         ry="3.9059501"
         transform="rotate(90)" />
      <ellipse
         style="fill:none;fill-opacity:1;fill-rule:evenodd;stroke:#000000;stroke-width:0.522371;stroke-opacity:1"
         id="path14-3"
         cx="60.916256"
         cy="-223.13937"
         rx="3.929671"
         ry="3.9059501"
         transform="rotate(90)" />
      <ellipse
         style="fill:none;fill-opacity:1;fill-rule:evenodd;stroke:#000000;stroke-width:0.522371;stroke-opacity:1"
         id="path14-7"
         cx="60.916256"
         cy="-213.02817"
         rx="3.929671"
         ry="3.9059501"
         transform="rotate(90)" />
      <ellipse
         style="fill:none;fill-opacity:1;fill-rule:evenodd;stroke:#000000;stroke-width:0.522371;stroke-opacity:1"
         id="path14-3-5"
         cx="60.916256"
         cy="-201.6575"
         rx="3.929671"
         ry="3.9059501"
         transform="rotate(90)" />
      <path
         style="fill:none;stroke:#000000;stroke-width:0.184613;stroke-linecap:butt;stroke-linejoin:miter;stroke-miterlimit:4;stroke-dasharray:none;stroke-opacity:1"
         d="m 235.20019,64.774237 4.88455,9.280632 z"
         id="path1318" />
      <path
         style="fill:none;stroke:#000000;stroke-width:0.184613;stroke-linecap:butt;stroke-linejoin:miter;stroke-miterlimit:4;stroke-dasharray:none;stroke-opacity:1"
         d="m 235.20019,64.774237 -6.34991,9.280632 z"
         id="path1320" />
      <path
         style="fill:none;stroke:#000000;stroke-width:0.184613;stroke-linecap:butt;stroke-linejoin:miter;stroke-miterlimit:4;stroke-dasharray:none;stroke-opacity:1"
         d="m 235.20019,64.774237 -17.09591,8.792184 z"
         id="path1322" />
      <path
         style="fill:none;stroke:#000000;stroke-width:0.184613;stroke-linecap:butt;stroke-linejoin:miter;stroke-miterlimit:4;stroke-dasharray:none;stroke-opacity:1"
         d="m 235.20019,64.774237 -28.33036,9.280632 z"
         id="path1324" />
      <path
         style="fill:none;stroke:#000000;stroke-width:0.184613;stroke-linecap:butt;stroke-linejoin:miter;stroke-miterlimit:4;stroke-dasharray:none;stroke-opacity:1"
         d="m 234.71174,64.774237 -38.58792,9.280632 z"
         id="path1326" />
      <path
         style="fill:none;stroke:#000000;stroke-width:0.184613;stroke-linecap:butt;stroke-linejoin:miter;stroke-miterlimit:4;stroke-dasharray:none;stroke-opacity:1"
         d="m 223.47728,64.774237 16.60746,9.280632 z"
         id="path1328" />
      <path
         style="fill:none;stroke:#000000;stroke-width:0.184613;stroke-linecap:butt;stroke-linejoin:miter;stroke-miterlimit:4;stroke-dasharray:none;stroke-opacity:1"
         d="m 223.47728,64.774237 5.373,9.280632 z"
         id="path1330" />
      <path
         style="fill:none;stroke:#000000;stroke-width:0.184613;stroke-linecap:butt;stroke-linejoin:miter;stroke-miterlimit:4;stroke-dasharray:none;stroke-opacity:1"
         d="m 223.47728,64.774237 -5.373,9.280632 z"
         id="path1332" />
      <path
         style="fill:none;stroke:#000000;stroke-width:0.184613;stroke-linecap:butt;stroke-linejoin:miter;stroke-miterlimit:4;stroke-dasharray:none;stroke-opacity:1"
         d="m 212.73128,64.774237 5.86146,9.280632 z"
         id="path1334" />
      <path
         style="fill:none;stroke:#000000;stroke-width:0.184613;stroke-linecap:butt;stroke-linejoin:miter;stroke-miterlimit:4;stroke-dasharray:none;stroke-opacity:1"
         d="m 223.47728,64.774237 -16.119,9.280632 z"
         id="path1336" />
      <path
         style="fill:none;stroke:#000000;stroke-width:0.184613;stroke-linecap:butt;stroke-linejoin:miter;stroke-miterlimit:4;stroke-dasharray:none;stroke-opacity:1"
         d="m 223.47728,64.774237 -26.865,9.280632 z"
         id="path1338" />
      <path
         style="fill:none;stroke:#000000;stroke-width:0.184613;stroke-linecap:butt;stroke-linejoin:miter;stroke-miterlimit:4;stroke-dasharray:none;stroke-opacity:1"
         d="m 212.73128,64.774237 -16.119,9.280632 z"
         id="path1340" />
      <path
         style="fill:none;stroke:#000000;stroke-width:0.184613;stroke-linecap:butt;stroke-linejoin:miter;stroke-miterlimit:4;stroke-dasharray:none;stroke-opacity:1"
         d="m 212.73128,64.774237 -5.373,9.280632 z"
         id="path1342" />
      <path
         style="fill:none;stroke:#000000;stroke-width:0.184613;stroke-linecap:butt;stroke-linejoin:miter;stroke-miterlimit:4;stroke-dasharray:none;stroke-opacity:1"
         d="m 212.24283,64.774237 16.60745,9.280632 z"
         id="path1348" />
      <path
         style="fill:none;stroke:#000000;stroke-width:0.184613;stroke-linecap:butt;stroke-linejoin:miter;stroke-miterlimit:4;stroke-dasharray:none;stroke-opacity:1"
         d="m 212.73128,64.774237 27.35346,9.280632 z"
         id="path1350" />
      <path
         style="fill:none;stroke:#000000;stroke-width:0.184613;stroke-linecap:butt;stroke-linejoin:miter;stroke-miterlimit:4;stroke-dasharray:none;stroke-opacity:1"
         d="m 201.49682,64.774237 5.86146,9.280632 z"
         id="path1352" />
      <path
         style="fill:none;stroke:#000000;stroke-width:0.184613;stroke-linecap:butt;stroke-linejoin:miter;stroke-miterlimit:4;stroke-dasharray:none;stroke-opacity:1"
         d="m 201.00837,64.774237 17.09591,8.792184 z"
         id="path1354" />
      <path
         style="fill:none;stroke:#000000;stroke-width:0.184613;stroke-linecap:butt;stroke-linejoin:miter;stroke-miterlimit:4;stroke-dasharray:none;stroke-opacity:1"
         d="m 201.49682,64.774237 26.86501,9.280632 z"
         id="path1358" />
      <path
         style="fill:none;stroke:#000000;stroke-width:0.184613;stroke-linecap:butt;stroke-linejoin:miter;stroke-miterlimit:4;stroke-dasharray:none;stroke-opacity:1"
         d="m 201.98528,64.774237 37.61101,9.280632 z"
         id="path1360" />
      <path
         style="fill:none;stroke:#000000;stroke-width:0.184613;stroke-linecap:butt;stroke-linejoin:miter;stroke-miterlimit:4;stroke-dasharray:none;stroke-opacity:1"
         d="m 201.49682,64.774237 -4.39609,9.280632 z"
         id="path1362" />
      <ellipse
         style="fill:none;fill-opacity:1;fill-rule:evenodd;stroke:#000000;stroke-width:0.494216;stroke-opacity:1"
         id="path14-35-6"
         cx="88.710312"
         cy="-240.62364"
         rx="3.7210138"
         ry="3.6922569"
         transform="rotate(90)" />
      <ellipse
         style="fill:none;fill-opacity:1;fill-rule:evenodd;stroke:#000000;stroke-width:0.494216;stroke-opacity:1"
         id="path14-3-5-9-1-3"
         cx="88.710312"
         cy="-196.31656"
         rx="3.7210138"
         ry="3.6922569"
         transform="rotate(90)" />
      <ellipse
         style="fill:none;fill-opacity:1;fill-rule:evenodd;stroke:#000000;stroke-width:0.494216;stroke-opacity:1"
         id="path14-78-2"
         cx="88.710091"
         cy="-229.20909"
         rx="3.7210138"
         ry="3.6922569"
         transform="rotate(90)" />
      <ellipse
         style="fill:none;fill-opacity:1;fill-rule:evenodd;stroke:#000000;stroke-width:0.494216;stroke-opacity:1"
         id="path14-3-4-0"
         cx="88.710091"
         cy="-218.13232"
         rx="3.7210138"
         ry="3.6922569"
         transform="rotate(90)" />
      <ellipse
         style="fill:none;fill-opacity:1;fill-rule:evenodd;stroke:#000000;stroke-width:0.494216;stroke-opacity:1"
         id="path14-7-5-6"
         cx="88.710091"
         cy="-207.05556"
         rx="3.7210138"
         ry="3.6922569"
         transform="rotate(90)" />
      <path
         style="fill:none;stroke:#000000;stroke-width:0.184613;stroke-linecap:butt;stroke-linejoin:miter;stroke-miterlimit:4;stroke-dasharray:none;stroke-opacity:1"
         d="m 240.57319,81.38169 v 3.419194 z"
         id="path1382" />
      <path
         style="fill:none;stroke:#000000;stroke-width:0.184613;stroke-linecap:butt;stroke-linejoin:miter;stroke-miterlimit:4;stroke-dasharray:none;stroke-opacity:1"
         d="m 240.57319,81.38169 -11.72291,3.419194 z"
         id="path1384" />
      <path
         style="fill:none;stroke:#000000;stroke-width:0.184613;stroke-linecap:butt;stroke-linejoin:miter;stroke-miterlimit:4;stroke-dasharray:none;stroke-opacity:1"
         d="m 240.57319,81.38169 -22.95736,3.419194 z"
         id="path1386" />
      <path
         style="fill:none;stroke:#000000;stroke-width:0.184613;stroke-linecap:butt;stroke-linejoin:miter;stroke-miterlimit:4;stroke-dasharray:none;stroke-opacity:1"
         d="m 240.57319,81.38169 -33.70336,3.419194 z"
         id="path1388" />
      <path
         style="fill:none;stroke:#000000;stroke-width:0;stroke-linecap:butt;stroke-linejoin:miter;stroke-miterlimit:4;stroke-dasharray:none;stroke-opacity:1"
         d="m 240.57319,81.38169 -44.44937,3.419194 z"
         id="path1390" />
      <path
         style="fill:none;stroke:#000000;stroke-width:0.184613;stroke-linecap:butt;stroke-linejoin:miter;stroke-miterlimit:4;stroke-dasharray:none;stroke-opacity:1"
         d="m 240.57319,81.38169 -44.44937,3.419194 z"
         id="path1392" />
      <path
         style="fill:none;stroke:#000000;stroke-width:0.184613;stroke-linecap:butt;stroke-linejoin:miter;stroke-miterlimit:4;stroke-dasharray:none;stroke-opacity:1"
         d="m 228.85028,81.38169 v 3.419194 z"
         id="path1382-1" />
      <path
         style="fill:none;stroke:#000000;stroke-width:0.184613;stroke-linecap:butt;stroke-linejoin:miter;stroke-miterlimit:4;stroke-dasharray:none;stroke-opacity:1"
         d="m 228.85028,81.38169 -11.72292,3.419194 z"
         id="path1384-5" />
      <path
         style="fill:none;stroke:#000000;stroke-width:0.184613;stroke-linecap:butt;stroke-linejoin:miter;stroke-miterlimit:4;stroke-dasharray:none;stroke-opacity:1"
         d="m 228.85028,81.38169 -33.70339,3.419194 z"
         id="path1388-4" />
      <path
         style="fill:none;stroke:#000000;stroke-width:0.184613;stroke-linecap:butt;stroke-linejoin:miter;stroke-miterlimit:4;stroke-dasharray:none;stroke-opacity:1"
         d="m 218.10428,81.38169 v 3.419194 z"
         id="path1382-5" />
      <path
         style="fill:none;stroke:#000000;stroke-width:0.184613;stroke-linecap:butt;stroke-linejoin:miter;stroke-miterlimit:4;stroke-dasharray:none;stroke-opacity:1"
         d="m 218.10428,81.38169 -11.72292,3.419194 z"
         id="path1384-6" />
      <path
         style="fill:none;stroke:#000000;stroke-width:0.184613;stroke-linecap:butt;stroke-linejoin:miter;stroke-miterlimit:4;stroke-dasharray:none;stroke-opacity:1"
         d="M 218.10428,81.38169 195.1469,84.800884 Z"
         id="path1386-9" />
      <path
         style="fill:none;stroke:#000000;stroke-width:0.184613;stroke-linecap:butt;stroke-linejoin:miter;stroke-miterlimit:4;stroke-dasharray:none;stroke-opacity:1"
         d="m 207.35826,81.38169 v 3.419176 z"
         id="path1382-2" />
      <path
         style="fill:none;stroke:#000000;stroke-width:0.184613;stroke-linecap:butt;stroke-linejoin:miter;stroke-miterlimit:4;stroke-dasharray:none;stroke-opacity:1"
         d="m 207.35826,81.38169 -11.72291,3.419176 z"
         id="path1384-54" />
      <path
         style="fill:none;stroke:#000000;stroke-width:0.184613;stroke-linecap:butt;stroke-linejoin:miter;stroke-miterlimit:4;stroke-dasharray:none;stroke-opacity:1"
         d="m 228.85028,81.38169 11.72291,3.419194 z"
         id="path1482" />
      <path
         style="fill:none;stroke:#000000;stroke-width:0.184613;stroke-linecap:butt;stroke-linejoin:miter;stroke-miterlimit:4;stroke-dasharray:none;stroke-opacity:1"
         d="M 240.57319,84.800884 218.10428,81.38169 Z"
         id="path1484" />
      <path
         style="fill:none;stroke:#000000;stroke-width:0.184613;stroke-linecap:butt;stroke-linejoin:miter;stroke-miterlimit:4;stroke-dasharray:none;stroke-opacity:1"
         d="m 218.10428,81.38169 10.746,3.419194 z"
         id="path1486" />
      <path
         style="fill:none;stroke:#000000;stroke-width:0.184613;stroke-linecap:butt;stroke-linejoin:miter;stroke-miterlimit:4;stroke-dasharray:none;stroke-opacity:1"
         d="m 207.35828,81.38169 10.746,3.419194 z"
         id="path1488" />
      <path
         style="fill:none;stroke:#000000;stroke-width:0.184613;stroke-linecap:butt;stroke-linejoin:miter;stroke-miterlimit:4;stroke-dasharray:none;stroke-opacity:1"
         d="m 207.35828,81.38169 21.492,3.419194 z"
         id="path1490" />
      <path
         style="fill:none;stroke:#000000;stroke-width:0.184613;stroke-linecap:butt;stroke-linejoin:miter;stroke-miterlimit:4;stroke-dasharray:none;stroke-opacity:1"
         d="m 207.35828,81.38169 33.21491,3.419194 z"
         id="path1492" />
      <path
         style="fill:none;stroke:#000000;stroke-width:0.184613;stroke-linecap:butt;stroke-linejoin:miter;stroke-miterlimit:4;stroke-dasharray:none;stroke-opacity:1"
         d="m 196.12382,81.38169 v 3.419194 z"
         id="path1494" />
      <path
         style="fill:none;stroke:#000000;stroke-width:0.184613;stroke-linecap:butt;stroke-linejoin:miter;stroke-miterlimit:4;stroke-dasharray:none;stroke-opacity:1"
         d="m 196.12382,81.38169 11.23446,3.419194 z"
         id="path1496" />
      <path
         style="fill:none;stroke:#000000;stroke-width:0.184613;stroke-linecap:butt;stroke-linejoin:miter;stroke-miterlimit:4;stroke-dasharray:none;stroke-opacity:1"
         d="m 196.12382,81.38169 21.98046,3.419194 z"
         id="path1498" />
      <path
         style="fill:none;stroke:#000000;stroke-width:0.184613;stroke-linecap:butt;stroke-linejoin:miter;stroke-miterlimit:4;stroke-dasharray:none;stroke-opacity:1"
         d="m 196.12382,81.38169 32.72646,3.419194 z"
         id="path1500" />
      <path
         style="fill:none;stroke:#000000;stroke-width:0.184613;stroke-linecap:butt;stroke-linejoin:miter;stroke-miterlimit:4;stroke-dasharray:none;stroke-opacity:1"
         d="m 196.12382,81.38169 44.44937,3.419194 z"
         id="path1502" />
      <path
         style="fill:none;stroke:#000000;stroke-width:0.184613;stroke-linecap:butt;stroke-linejoin:miter;stroke-miterlimit:4;stroke-dasharray:none;stroke-opacity:1"
         d="m 207.35828,84.800884 21.492,-3.419194 z"
         id="path1504" />
      <ellipse
         style="fill:none;fill-opacity:1;fill-rule:evenodd;stroke:#000000;stroke-width:0.494216;stroke-opacity:1"
         id="path14-35-6-8"
         cx="99.78714"
         cy="-240.62364"
         rx="3.7210138"
         ry="3.6922569"
         transform="rotate(90)" />
      <ellipse
         style="fill:none;fill-opacity:1;fill-rule:evenodd;stroke:#000000;stroke-width:0.494216;stroke-opacity:1"
         id="path14-3-5-9-1-3-6"
         cx="99.78714"
         cy="-196.31656"
         rx="3.7210138"
         ry="3.6922569"
         transform="rotate(90)" />
      <ellipse
         style="fill:none;fill-opacity:1;fill-rule:evenodd;stroke:#000000;stroke-width:0.494216;stroke-opacity:1"
         id="path14-78-2-8"
         cx="99.786858"
         cy="-229.20909"
         rx="3.7210138"
         ry="3.6922569"
         transform="rotate(90)" />
      <ellipse
         style="fill:none;fill-opacity:1;fill-rule:evenodd;stroke:#000000;stroke-width:0.494216;stroke-opacity:1"
         id="path14-3-4-0-8"
         cx="99.786858"
         cy="-218.13232"
         rx="3.7210138"
         ry="3.6922569"
         transform="rotate(90)" />
      <ellipse
         style="fill:none;fill-opacity:1;fill-rule:evenodd;stroke:#000000;stroke-width:0.494216;stroke-opacity:1"
         id="path14-7-5-6-4"
         cx="99.786858"
         cy="-207.05556"
         rx="3.7210138"
         ry="3.6922569"
         transform="rotate(90)" />
      <path
         style="fill:none;stroke:#000000;stroke-width:0.184613;stroke-linecap:butt;stroke-linejoin:miter;stroke-miterlimit:4;stroke-dasharray:none;stroke-opacity:1"
         d="m 240.57319,92.458493 v 3.419195 z"
         id="path1382-3" />
      <path
         style="fill:none;stroke:#000000;stroke-width:0.184613;stroke-linecap:butt;stroke-linejoin:miter;stroke-miterlimit:4;stroke-dasharray:none;stroke-opacity:1"
         d="m 240.57319,92.458493 -11.72291,3.419195 z"
         id="path1384-1" />
      <path
         style="fill:none;stroke:#000000;stroke-width:0.184613;stroke-linecap:butt;stroke-linejoin:miter;stroke-miterlimit:4;stroke-dasharray:none;stroke-opacity:1"
         d="m 240.57319,92.458493 -22.95736,3.419195 z"
         id="path1386-4" />
      <path
         style="fill:none;stroke:#000000;stroke-width:0.184613;stroke-linecap:butt;stroke-linejoin:miter;stroke-miterlimit:4;stroke-dasharray:none;stroke-opacity:1"
         d="m 240.57319,92.458493 -33.70336,3.419195 z"
         id="path1388-9" />
      <path
         style="fill:none;stroke:#000000;stroke-width:0;stroke-linecap:butt;stroke-linejoin:miter;stroke-miterlimit:4;stroke-dasharray:none;stroke-opacity:1"
         d="m 240.57319,92.458493 -44.44937,3.419195 z"
         id="path1390-2" />
      <path
         style="fill:none;stroke:#000000;stroke-width:0.184613;stroke-linecap:butt;stroke-linejoin:miter;stroke-miterlimit:4;stroke-dasharray:none;stroke-opacity:1"
         d="m 240.57319,92.458493 -44.44937,3.419195 z"
         id="path1392-0" />
      <path
         style="fill:none;stroke:#000000;stroke-width:0.184613;stroke-linecap:butt;stroke-linejoin:miter;stroke-miterlimit:4;stroke-dasharray:none;stroke-opacity:1"
         d="m 228.85028,92.458493 v 3.419195 z"
         id="path1382-1-6" />
      <path
         style="fill:none;stroke:#000000;stroke-width:0.184613;stroke-linecap:butt;stroke-linejoin:miter;stroke-miterlimit:4;stroke-dasharray:none;stroke-opacity:1"
         d="m 228.85028,92.458493 -11.72292,3.419195 z"
         id="path1384-5-8" />
      <path
         style="fill:none;stroke:#000000;stroke-width:0.184613;stroke-linecap:butt;stroke-linejoin:miter;stroke-miterlimit:4;stroke-dasharray:none;stroke-opacity:1"
         d="m 228.85028,92.458493 -33.70339,3.419195 z"
         id="path1388-4-9" />
      <path
         style="fill:none;stroke:#000000;stroke-width:0.184613;stroke-linecap:butt;stroke-linejoin:miter;stroke-miterlimit:4;stroke-dasharray:none;stroke-opacity:1"
         d="m 218.10428,92.458493 v 3.419195 z"
         id="path1382-5-2" />
      <path
         style="fill:none;stroke:#000000;stroke-width:0.184613;stroke-linecap:butt;stroke-linejoin:miter;stroke-miterlimit:4;stroke-dasharray:none;stroke-opacity:1"
         d="m 218.10428,92.458493 -11.72292,3.419195 z"
         id="path1384-6-6" />
      <path
         style="fill:none;stroke:#000000;stroke-width:0.184613;stroke-linecap:butt;stroke-linejoin:miter;stroke-miterlimit:4;stroke-dasharray:none;stroke-opacity:1"
         d="M 218.10428,92.458493 195.1469,95.877688 Z"
         id="path1386-9-6" />
      <path
         style="fill:none;stroke:#000000;stroke-width:0.184613;stroke-linecap:butt;stroke-linejoin:miter;stroke-miterlimit:4;stroke-dasharray:none;stroke-opacity:1"
         d="M 207.35826,92.458493 V 95.87767 Z"
         id="path1382-2-4" />
      <path
         style="fill:none;stroke:#000000;stroke-width:0.184613;stroke-linecap:butt;stroke-linejoin:miter;stroke-miterlimit:4;stroke-dasharray:none;stroke-opacity:1"
         d="M 207.35826,92.458493 195.63535,95.87767 Z"
         id="path1384-54-9" />
      <path
         style="fill:none;stroke:#000000;stroke-width:0.184613;stroke-linecap:butt;stroke-linejoin:miter;stroke-miterlimit:4;stroke-dasharray:none;stroke-opacity:1"
         d="m 228.85028,92.458493 11.72291,3.419195 z"
         id="path1482-5" />
      <path
         style="fill:none;stroke:#000000;stroke-width:0.184613;stroke-linecap:butt;stroke-linejoin:miter;stroke-miterlimit:4;stroke-dasharray:none;stroke-opacity:1"
         d="M 240.57319,95.877688 218.10428,92.458493 Z"
         id="path1484-0" />
      <path
         style="fill:none;stroke:#000000;stroke-width:0.184613;stroke-linecap:butt;stroke-linejoin:miter;stroke-miterlimit:4;stroke-dasharray:none;stroke-opacity:1"
         d="m 218.10428,92.458493 10.746,3.419195 z"
         id="path1486-4" />
      <path
         style="fill:none;stroke:#000000;stroke-width:0.184613;stroke-linecap:butt;stroke-linejoin:miter;stroke-miterlimit:4;stroke-dasharray:none;stroke-opacity:1"
         d="m 207.35828,92.458493 10.746,3.419195 z"
         id="path1488-8" />
      <path
         style="fill:none;stroke:#000000;stroke-width:0.184613;stroke-linecap:butt;stroke-linejoin:miter;stroke-miterlimit:4;stroke-dasharray:none;stroke-opacity:1"
         d="m 207.35828,92.458493 21.492,3.419195 z"
         id="path1490-7" />
      <path
         style="fill:none;stroke:#000000;stroke-width:0.184613;stroke-linecap:butt;stroke-linejoin:miter;stroke-miterlimit:4;stroke-dasharray:none;stroke-opacity:1"
         d="m 207.35828,92.458493 33.21491,3.419195 z"
         id="path1492-1" />
      <path
         style="fill:none;stroke:#000000;stroke-width:0.184613;stroke-linecap:butt;stroke-linejoin:miter;stroke-miterlimit:4;stroke-dasharray:none;stroke-opacity:1"
         d="m 196.12382,92.458493 v 3.419195 z"
         id="path1494-7" />
      <path
         style="fill:none;stroke:#000000;stroke-width:0.184613;stroke-linecap:butt;stroke-linejoin:miter;stroke-miterlimit:4;stroke-dasharray:none;stroke-opacity:1"
         d="m 196.12382,92.458493 11.23446,3.419195 z"
         id="path1496-2" />
      <path
         style="fill:none;stroke:#000000;stroke-width:0.184613;stroke-linecap:butt;stroke-linejoin:miter;stroke-miterlimit:4;stroke-dasharray:none;stroke-opacity:1"
         d="m 196.12382,92.458493 21.98046,3.419195 z"
         id="path1498-7" />
      <path
         style="fill:none;stroke:#000000;stroke-width:0.184613;stroke-linecap:butt;stroke-linejoin:miter;stroke-miterlimit:4;stroke-dasharray:none;stroke-opacity:1"
         d="m 196.12382,92.458493 32.72646,3.419195 z"
         id="path1500-2" />
      <path
         style="fill:none;stroke:#000000;stroke-width:0.184613;stroke-linecap:butt;stroke-linejoin:miter;stroke-miterlimit:4;stroke-dasharray:none;stroke-opacity:1"
         d="m 196.12382,92.458493 44.44937,3.419195 z"
         id="path1502-2" />
      <path
         style="fill:none;stroke:#000000;stroke-width:0.184613;stroke-linecap:butt;stroke-linejoin:miter;stroke-miterlimit:4;stroke-dasharray:none;stroke-opacity:1"
         d="m 207.35828,95.877688 21.492,-3.419195 z"
         id="path1504-6" />
      <ellipse
         style="fill:none;fill-opacity:1;fill-rule:evenodd;stroke:#000000;stroke-width:0.494216;stroke-opacity:1"
         id="path14-35-6-8-0"
         cx="110.86391"
         cy="-240.62364"
         rx="3.7210138"
         ry="3.6922569"
         transform="rotate(90)" />
      <ellipse
         style="fill:none;fill-opacity:1;fill-rule:evenodd;stroke:#000000;stroke-width:0.494216;stroke-opacity:1"
         id="path14-3-5-9-1-3-6-6"
         cx="110.86391"
         cy="-196.31656"
         rx="3.7210138"
         ry="3.6922569"
         transform="rotate(90)" />
      <ellipse
         style="fill:none;fill-opacity:1;fill-rule:evenodd;stroke:#000000;stroke-width:0.494216;stroke-opacity:1"
         id="path14-78-2-8-1"
         cx="110.86362"
         cy="-229.20909"
         rx="3.7210138"
         ry="3.6922569"
         transform="rotate(90)" />
      <ellipse
         style="fill:none;fill-opacity:1;fill-rule:evenodd;stroke:#000000;stroke-width:0.494216;stroke-opacity:1"
         id="path14-3-4-0-8-5"
         cx="110.86362"
         cy="-218.13232"
         rx="3.7210138"
         ry="3.6922569"
         transform="rotate(90)" />
      <ellipse
         style="fill:none;fill-opacity:1;fill-rule:evenodd;stroke:#000000;stroke-width:0.494216;stroke-opacity:1"
         id="path14-7-5-6-4-9"
         cx="110.86362"
         cy="-207.05556"
         rx="3.7210138"
         ry="3.6922569"
         transform="rotate(90)" />
      <path
         style="fill:none;stroke:#000000;stroke-width:0.184613;stroke-linecap:butt;stroke-linejoin:miter;stroke-miterlimit:4;stroke-dasharray:none;stroke-opacity:1"
         d="m 240.57319,103.53526 v 3.4192 z"
         id="path1382-3-4" />
      <path
         style="fill:none;stroke:#000000;stroke-width:0.184613;stroke-linecap:butt;stroke-linejoin:miter;stroke-miterlimit:4;stroke-dasharray:none;stroke-opacity:1"
         d="m 240.57319,103.53526 -11.72291,3.4192 z"
         id="path1384-1-9" />
      <path
         style="fill:none;stroke:#000000;stroke-width:0.184613;stroke-linecap:butt;stroke-linejoin:miter;stroke-miterlimit:4;stroke-dasharray:none;stroke-opacity:1"
         d="m 240.57319,103.53526 -22.95736,3.4192 z"
         id="path1386-4-0" />
      <path
         style="fill:none;stroke:#000000;stroke-width:0.184613;stroke-linecap:butt;stroke-linejoin:miter;stroke-miterlimit:4;stroke-dasharray:none;stroke-opacity:1"
         d="m 240.57319,103.53526 -33.70336,3.4192 z"
         id="path1388-9-9" />
      <path
         style="fill:none;stroke:#000000;stroke-width:0;stroke-linecap:butt;stroke-linejoin:miter;stroke-miterlimit:4;stroke-dasharray:none;stroke-opacity:1"
         d="m 240.57319,103.53526 -44.44937,3.4192 z"
         id="path1390-2-1" />
      <path
         style="fill:none;stroke:#000000;stroke-width:0.184613;stroke-linecap:butt;stroke-linejoin:miter;stroke-miterlimit:4;stroke-dasharray:none;stroke-opacity:1"
         d="m 240.57319,103.53526 -44.44937,3.4192 z"
         id="path1392-0-7" />
      <path
         style="fill:none;stroke:#000000;stroke-width:0.184613;stroke-linecap:butt;stroke-linejoin:miter;stroke-miterlimit:4;stroke-dasharray:none;stroke-opacity:1"
         d="m 228.85028,103.53526 v 3.4192 z"
         id="path1382-1-6-7" />
      <path
         style="fill:none;stroke:#000000;stroke-width:0.184613;stroke-linecap:butt;stroke-linejoin:miter;stroke-miterlimit:4;stroke-dasharray:none;stroke-opacity:1"
         d="m 228.85028,103.53526 -11.72292,3.4192 z"
         id="path1384-5-8-1" />
      <path
         style="fill:none;stroke:#000000;stroke-width:0.184613;stroke-linecap:butt;stroke-linejoin:miter;stroke-miterlimit:4;stroke-dasharray:none;stroke-opacity:1"
         d="m 228.85028,103.53526 -33.70339,3.4192 z"
         id="path1388-4-9-1" />
      <path
         style="fill:none;stroke:#000000;stroke-width:0.184613;stroke-linecap:butt;stroke-linejoin:miter;stroke-miterlimit:4;stroke-dasharray:none;stroke-opacity:1"
         d="m 218.10428,103.53526 v 3.4192 z"
         id="path1382-5-2-5" />
      <path
         style="fill:none;stroke:#000000;stroke-width:0.184613;stroke-linecap:butt;stroke-linejoin:miter;stroke-miterlimit:4;stroke-dasharray:none;stroke-opacity:1"
         d="m 218.10428,103.53526 -11.72292,3.4192 z"
         id="path1384-6-6-9" />
      <path
         style="fill:none;stroke:#000000;stroke-width:0.184613;stroke-linecap:butt;stroke-linejoin:miter;stroke-miterlimit:4;stroke-dasharray:none;stroke-opacity:1"
         d="m 218.10428,103.53526 -22.95738,3.4192 z"
         id="path1386-9-6-7" />
      <path
         style="fill:none;stroke:#000000;stroke-width:0.184613;stroke-linecap:butt;stroke-linejoin:miter;stroke-miterlimit:4;stroke-dasharray:none;stroke-opacity:1"
         d="m 207.35826,103.53526 v 3.41918 z"
         id="path1382-2-4-7" />
      <path
         style="fill:none;stroke:#000000;stroke-width:0.184613;stroke-linecap:butt;stroke-linejoin:miter;stroke-miterlimit:4;stroke-dasharray:none;stroke-opacity:1"
         d="m 207.35826,103.53526 -11.72291,3.41918 z"
         id="path1384-54-9-6" />
      <path
         style="fill:none;stroke:#000000;stroke-width:0.184613;stroke-linecap:butt;stroke-linejoin:miter;stroke-miterlimit:4;stroke-dasharray:none;stroke-opacity:1"
         d="m 228.85028,103.53526 11.72291,3.4192 z"
         id="path1482-5-7" />
      <path
         style="fill:none;stroke:#000000;stroke-width:0.184613;stroke-linecap:butt;stroke-linejoin:miter;stroke-miterlimit:4;stroke-dasharray:none;stroke-opacity:1"
         d="m 240.57319,106.95446 -22.46891,-3.4192 z"
         id="path1484-0-3" />
      <path
         style="fill:none;stroke:#000000;stroke-width:0.184613;stroke-linecap:butt;stroke-linejoin:miter;stroke-miterlimit:4;stroke-dasharray:none;stroke-opacity:1"
         d="m 218.10428,103.53526 10.746,3.4192 z"
         id="path1486-4-6" />
      <path
         style="fill:none;stroke:#000000;stroke-width:0.184613;stroke-linecap:butt;stroke-linejoin:miter;stroke-miterlimit:4;stroke-dasharray:none;stroke-opacity:1"
         d="m 207.35828,103.53526 10.746,3.4192 z"
         id="path1488-8-5" />
      <path
         style="fill:none;stroke:#000000;stroke-width:0.184613;stroke-linecap:butt;stroke-linejoin:miter;stroke-miterlimit:4;stroke-dasharray:none;stroke-opacity:1"
         d="m 207.35828,103.53526 21.492,3.4192 z"
         id="path1490-7-6" />
      <path
         style="fill:none;stroke:#000000;stroke-width:0.184613;stroke-linecap:butt;stroke-linejoin:miter;stroke-miterlimit:4;stroke-dasharray:none;stroke-opacity:1"
         d="m 207.35828,103.53526 33.21491,3.4192 z"
         id="path1492-1-3" />
      <path
         style="fill:none;stroke:#000000;stroke-width:0.184613;stroke-linecap:butt;stroke-linejoin:miter;stroke-miterlimit:4;stroke-dasharray:none;stroke-opacity:1"
         d="m 196.12382,103.53526 v 3.4192 z"
         id="path1494-7-9" />
      <path
         style="fill:none;stroke:#000000;stroke-width:0.184613;stroke-linecap:butt;stroke-linejoin:miter;stroke-miterlimit:4;stroke-dasharray:none;stroke-opacity:1"
         d="m 196.12382,103.53526 11.23446,3.4192 z"
         id="path1496-2-4" />
      <path
         style="fill:none;stroke:#000000;stroke-width:0.184613;stroke-linecap:butt;stroke-linejoin:miter;stroke-miterlimit:4;stroke-dasharray:none;stroke-opacity:1"
         d="m 196.12382,103.53526 21.98046,3.4192 z"
         id="path1498-7-8" />
      <path
         style="fill:none;stroke:#000000;stroke-width:0.184613;stroke-linecap:butt;stroke-linejoin:miter;stroke-miterlimit:4;stroke-dasharray:none;stroke-opacity:1"
         d="m 196.12382,103.53526 32.72646,3.4192 z"
         id="path1500-2-1" />
      <path
         style="fill:none;stroke:#000000;stroke-width:0.184613;stroke-linecap:butt;stroke-linejoin:miter;stroke-miterlimit:4;stroke-dasharray:none;stroke-opacity:1"
         d="m 196.12382,103.53526 44.44937,3.4192 z"
         id="path1502-2-2" />
      <path
         style="fill:none;stroke:#000000;stroke-width:0.184613;stroke-linecap:butt;stroke-linejoin:miter;stroke-miterlimit:4;stroke-dasharray:none;stroke-opacity:1"
         d="m 207.35828,106.95446 21.492,-3.4192 z"
         id="path1504-6-9" />
      <ellipse
         style="fill:none;fill-opacity:1;fill-rule:evenodd;stroke:#000000;stroke-width:0.597898;stroke-opacity:1"
         id="path14-3-0"
         cx="-128.36989"
         cy="-223.65659"
         rx="4.4654398"
         ry="4.5030789"
         transform="matrix(0,-1,-1,0,0,0)" />
      <ellipse
         style="fill:none;fill-opacity:1;fill-rule:evenodd;stroke:#000000;stroke-width:0.597898;stroke-opacity:1"
         id="path14-7-8"
         cx="-128.36916"
         cy="-212.72192"
         rx="4.4654398"
         ry="4.5030789"
         transform="matrix(0,-1,-1,0,0,0)" />
      <path
         style="fill:none;stroke:#000000;stroke-width:0.184613;stroke-linecap:butt;stroke-linejoin:miter;stroke-miterlimit:4;stroke-dasharray:none;stroke-opacity:1"
         d="m 223.47806,123.71316 16.60746,-9.28065 z"
         id="path1328-8" />
      <path
         style="fill:none;stroke:#000000;stroke-width:0.184613;stroke-linecap:butt;stroke-linejoin:miter;stroke-miterlimit:4;stroke-dasharray:none;stroke-opacity:1"
         d="m 223.47806,123.71316 5.373,-9.28065 z"
         id="path1330-5" />
      <path
         style="fill:none;stroke:#000000;stroke-width:0.184613;stroke-linecap:butt;stroke-linejoin:miter;stroke-miterlimit:4;stroke-dasharray:none;stroke-opacity:1"
         d="m 223.47806,123.71316 -5.373,-9.28065 z"
         id="path1332-6" />
      <path
         style="fill:none;stroke:#000000;stroke-width:0.184613;stroke-linecap:butt;stroke-linejoin:miter;stroke-miterlimit:4;stroke-dasharray:none;stroke-opacity:1"
         d="m 212.73206,123.71316 5.86145,-9.28065 z"
         id="path1334-1" />
      <path
         style="fill:none;stroke:#000000;stroke-width:0.184613;stroke-linecap:butt;stroke-linejoin:miter;stroke-miterlimit:4;stroke-dasharray:none;stroke-opacity:1"
         d="m 223.47806,123.71316 -16.119,-9.28065 z"
         id="path1336-1" />
      <path
         style="fill:none;stroke:#000000;stroke-width:0.184613;stroke-linecap:butt;stroke-linejoin:miter;stroke-miterlimit:4;stroke-dasharray:none;stroke-opacity:1"
         d="m 223.47806,123.71316 -26.86501,-9.28065 z"
         id="path1338-5" />
      <path
         style="fill:none;stroke:#000000;stroke-width:0.184613;stroke-linecap:butt;stroke-linejoin:miter;stroke-miterlimit:4;stroke-dasharray:none;stroke-opacity:1"
         d="m 212.73206,123.71316 -16.11901,-9.28065 z"
         id="path1340-9" />
      <path
         style="fill:none;stroke:#000000;stroke-width:0.184613;stroke-linecap:butt;stroke-linejoin:miter;stroke-miterlimit:4;stroke-dasharray:none;stroke-opacity:1"
         d="m 212.73206,123.71316 -5.373,-9.28065 z"
         id="path1342-8" />
      <path
         style="fill:none;stroke:#000000;stroke-width:0.184613;stroke-linecap:butt;stroke-linejoin:miter;stroke-miterlimit:4;stroke-dasharray:none;stroke-opacity:1"
         d="m 212.2436,123.71316 16.60746,-9.28065 z"
         id="path1348-4" />
      <path
         style="fill:none;stroke:#000000;stroke-width:0.184613;stroke-linecap:butt;stroke-linejoin:miter;stroke-miterlimit:4;stroke-dasharray:none;stroke-opacity:1"
         d="m 212.73206,123.71316 27.35346,-9.28065 z"
         id="path1350-8" />
      <path
         style="fill:none;stroke:#000000;stroke-width:0.211667;stroke-linecap:butt;stroke-linejoin:miter;stroke-miterlimit:4;stroke-dasharray:none;stroke-opacity:1;marker-start:url(#Arrow2Lstart-3)"
         d="M 235.20019,56.629287 V 52.25426 Z"
         id="path1995" />
      <path
         style="fill:none;stroke:#000000;stroke-width:0.211667;stroke-linecap:butt;stroke-linejoin:miter;stroke-miterlimit:4;stroke-dasharray:none;stroke-opacity:1;marker-start:url(#Arrow2Lstart-4)"
         d="M 222.98883,56.669514 V 52.253798 Z"
         id="path1995-4" />
      <path
         style="fill:none;stroke:#000000;stroke-width:0.211667;stroke-linecap:butt;stroke-linejoin:miter;stroke-miterlimit:4;stroke-dasharray:none;stroke-opacity:1;marker-start:url(#Arrow2Lstart-1)"
         d="M 212.73128,56.552359 V 52.253798 Z"
         id="path1995-6" />
      <path
         style="fill:none;stroke:#000000;stroke-width:0.211667;stroke-linecap:butt;stroke-linejoin:miter;stroke-miterlimit:4;stroke-dasharray:none;stroke-opacity:1;marker-start:url(#Arrow2Lstart-4-5)"
         d="M 201.49682,56.42385 V 52.253798 Z"
         id="path1995-4-2" />
      <path
         style="fill:none;stroke:#000000;stroke-width:0.211667;stroke-linecap:butt;stroke-linejoin:miter;stroke-miterlimit:4;stroke-dasharray:none;stroke-opacity:1;marker-start:url(#Arrow2Lstart-1-1)"
         d="m 223.52544,136.57214 v -3.66495 z"
         id="path1995-6-7" />
      <path
         style="fill:none;stroke:#000000;stroke-width:0.211667;stroke-linecap:butt;stroke-linejoin:miter;stroke-miterlimit:4;stroke-dasharray:none;stroke-opacity:1;marker-start:url(#Arrow2Lstart-4-5-8)"
         d="m 212.44817,136.5482 v -3.66863 z"
         id="path1995-4-2-4" />
      <text
         xml:space="preserve"
         style="font-style:normal;font-weight:normal;font-size:7.05556px;line-height:1.25;font-family:sans-serif;text-align:center;text-anchor:middle;fill:#000000;fill-opacity:1;stroke:none;stroke-width:0.712477"
         x="268.77341"
         y="63.591499"
         id="text3375"><tspan
           sodipodi:role="line"
           x="268.77341"
           y="63.591499"
           style="font-size:7.05556px;text-align:center;text-anchor:middle;stroke-width:0.712477"
           id="tspan3377">Input layer</tspan></text>
      <text
         xml:space="preserve"
         style="font-style:normal;font-weight:normal;font-size:7.05556px;line-height:1.25;font-family:sans-serif;text-align:center;text-anchor:middle;fill:#000000;fill-opacity:1;stroke:none;stroke-width:0.712477"
         x="271.45804"
         y="130.63155"
         id="text3375-1"><tspan
           sodipodi:role="line"
           x="271.45804"
           y="130.63155"
           style="font-size:7.05556px;text-align:center;text-anchor:middle;stroke-width:0.712477"
           id="tspan3377-5">Output layer</tspan></text>
      <text
         xml:space="preserve"
         style="font-style:normal;font-weight:normal;font-size:7.05556px;line-height:1.25;font-family:sans-serif;text-align:center;text-anchor:middle;fill:#000000;fill-opacity:1;stroke:none;stroke-width:0.712477"
         x="273.09494"
         y="96.441025"
         id="text3375-9"><tspan
           sodipodi:role="line"
           x="273.09494"
           y="96.441025"
           style="font-size:7.05556px;text-align:center;text-anchor:middle;stroke-width:0.712477"
           id="tspan3377-53">Hidden layers</tspan></text>
    </g>
    <g
       id="g3319"
       transform="translate(-35.147956,2.7067197)">
      <circle
         style="fill:#acacac;fill-opacity:1;stroke:none;stroke-width:0.121513;stroke-linejoin:bevel;stroke-miterlimit:4;stroke-dasharray:none;stroke-dashoffset:0"
         id="path833-6-5-6"
         cx="51.623611"
         cy="27.622475"
         r="1.5" />
      <circle
         style="fill:#acacac;fill-opacity:1;stroke:none;stroke-width:0.121513;stroke-linejoin:bevel;stroke-miterlimit:4;stroke-dasharray:none;stroke-dashoffset:0"
         id="path833-60-7"
         cx="62.623611"
         cy="27.622475"
         r="1.5" />
      <circle
         style="fill:#acacac;fill-opacity:1;stroke:none;stroke-width:0.121513;stroke-linejoin:bevel;stroke-miterlimit:4;stroke-dasharray:none;stroke-dashoffset:0"
         id="path833-6-2-5"
         cx="73.623611"
         cy="27.622475"
         r="1.5" />
      <circle
         style="fill:#acacac;fill-opacity:1;stroke:none;stroke-width:0.121513;stroke-linejoin:bevel;stroke-miterlimit:4;stroke-dasharray:none;stroke-dashoffset:0"
         id="path833-5-8-3"
         cx="84.623627"
         cy="27.622475"
         r="1.5" />
    </g>
  </g>
</svg>
